2016_Mar_25 11:31:46: TelfinCheck started<br/>
not updated<br/>1|t~5Onv4Qkt.rBzqGzD5.jPHS94X5.OzP|13298|1458901768|j~b4t7r0dL-8KGFx2XD_OdQVYAXW_Y0q<br/>&startDate=2016-03-24T11%3A31%3A46%2B03%3A00<br/>{"entry":{"ew3wmm6jdq5aurxurqw3":{"id":"ew3wmm6jdq5aurxurqw3","published":"2016-03-24T19:23:18+03:00","ownerId":"13298","ownerName":"LMY132306","phoneCallView":[{"source":"101","destination":"+79523569768","duration":"0","flow":4,"disposition":3}]},"zktyvpeunh6kjcucke4u":{"id":"zktyvpeunh6kjcucke4u","published":"2016-03-24T19:24:40+03:00","ownerId":"13298","ownerName":"LMY132306","phoneCallView":[{"source":"101","destination":"+79523569768","duration":"92","answered":"2016-03-24T19:25:04+03:00","flow":4,"disposition":0}]},"sevm5e5gqy57aoznnht3":{"id":"sevm5e5gqy57aoznnht3","published":"2016-03-24T19:27:10+03:00","ownerId":"13298","ownerName":"LMY132306","phoneCallView":[{"source":"101","destination":"+79119501950","duration":"0","flow":4,"disposition":3}]},"3klrdur67eo4xv75lee4":{"id":"3klrdur67eo4xv75lee4","published":"2016-03-24T19:28:14+03:00","ownerId":"13298","ownerName":"LMY132306","phoneCallView":[{"source":"101","destination":"+79818418058","duration":"81","answered":"2016-03-24T19:28:28+03:00","flow":4,"disposition":0}]},"45kzxcrwzy26enweimrc":{"id":"45kzxcrwzy26enweimrc","published":"2016-03-24T19:30:19+03:00","ownerId":"13298","ownerName":"LMY132306","phoneCallView":[{"source":"101","destination":"+79602616540","duration":"0","flow":4,"disposition":3}]},"3caiafg4yggbfw2musw5":{"id":"3caiafg4yggbfw2musw5","published":"2016-03-24T19:31:30+03:00","ownerId":"13298","ownerName":"LMY132306","phoneCallView":[{"source":"101","destination":"+79119661900","duration":"46","answered":"2016-03-24T19:31:57+03:00","flow":4,"disposition":0}]},"2aj4sulgm7guyvhhabel":{"id":"2aj4sulgm7guyvhhabel","published":"2016-03-24T19:34:18+03:00","ownerId":"13298","ownerName":"LMY132306","phoneCallView":[{"source":"101","destination":"+79219654333","duration":"366","answered":"2016-03-24T19:34:29+03:00","flow":4,"disposition":0}]},"65wf6fgyqdkriv36c5je":{"id":"65wf6fgyqdkriv36c5je","published":"2016-03-24T19:41:54+03:00","ownerId":"13298","ownerName":"LMY132306","phoneCallView":[{"source":"+78127439880","destination":"104","duration":"15","answered":"2016-03-24T19:41:55+03:00","flow":8,"disposition":0}]},"sku6r7vwnkovt2yjynkz":{"id":"sku6r7vwnkovt2yjynkz","published":"2016-03-24T19:45:10+03:00","ownerId":"13298","ownerName":"LMY132306","phoneCallView":[{"source":"101","destination":"+78123474913","duration":"0","flow":4,"disposition":3}]},"mlaogjoupy3aaoswu7ny":{"id":"mlaogjoupy3aaoswu7ny","published":"2016-03-24T19:46:29+03:00","ownerId":"13298","ownerName":"LMY132306","phoneCallView":[{"source":"101","destination":"+79602627634","duration":"181","answered":"2016-03-24T19:46:43+03:00","flow":4,"disposition":0}]},"cki5l53z4yb2yu6uescx":{"id":"cki5l53z4yb2yu6uescx","published":"2016-03-24T19:50:30+03:00","ownerId":"13298","ownerName":"LMY132306","phoneCallView":[{"source":"101","destination":"+79119920618","duration":"91","answered":"2016-03-24T19:50:53+03:00","flow":4,"disposition":0}]},"sjhq2ciyfxsakuhbklwb":{"id":"sjhq2ciyfxsakuhbklwb","published":"2016-03-24T19:53:15+03:00","ownerId":"13298","ownerName":"LMY132306","phoneCallView":[{"source":"101","destination":"+79117163717","duration":"0","flow":4,"disposition":3}]},"bfegljmbudyb7smgcuur":{"id":"bfegljmbudyb7smgcuur","published":"2016-03-24T19:54:31+03:00","ownerId":"13298","ownerName":"LMY132306","phoneCallView":[{"source":"101","destination":"+79516590563","duration":"439","answered":"2016-03-24T19:54:50+03:00","flow":4,"disposition":0}]},"kegznymh45g25oupojyn":{"id":"kegznymh45g25oupojyn","published":"2016-03-24T20:04:00+03:00","ownerId":"13298","ownerName":"LMY132306","phoneCallView":[{"source":"101","destination":"+79219997833","duration":"180","answered":"2016-03-24T20:04:28+03:00","flow":4,"disposition":0}]},"v6qgjend7gyteoknllnx":{"id":"v6qgjend7gyteoknllnx","published":"2016-03-24T20:08:35+03:00","ownerId":"13298","ownerName":"LMY132306","phoneCallView":[{"source":"101","destination":"+79119501950","duration":"0","flow":4,"disposition":3}]},"ua6g6uk7w6r5m27l54bu":{"id":"ua6g6uk7w6r5m27l54bu","published":"2016-03-24T20:09:25+03:00","ownerId":"13298","ownerName":"LMY132306","phoneCallView":[{"source":"101","destination":"+79602616540","duration":"341","answered":"2016-03-24T20:09:48+03:00","flow":4,"disposition":0}]},"shrpw4rj2xuz5jsdoftb":{"id":"shrpw4rj2xuz5jsdoftb","published":"2016-03-24T20:17:41+03:00","ownerId":"13298","ownerName":"LMY132306","phoneCallView":[{"source":"101","destination":"+78123474913","duration":"0","flow":4,"disposition":3}]},"fhechnw6gm5bjo2qosib":{"id":"fhechnw6gm5bjo2qosib","published":"2016-03-24T20:18:52+03:00","ownerId":"13298","ownerName":"LMY132306","phoneCallView":[{"source":"101","destination":"+79117163717","duration":"277","answered":"2016-03-24T20:19:14+03:00","flow":4,"disposition":0}]},"7f6civbfkhiww655l2fa":{"id":"7f6civbfkhiww655l2fa","published":"2016-03-24T20:25:50+03:00","ownerId":"13298","ownerName":"LMY132306","phoneCallView":[{"source":"101","destination":"+79626898021","duration":"409","answered":"2016-03-24T20:26:01+03:00","flow":4,"disposition":0}]},"rtqx5qf6sw4polanmie2":{"id":"rtqx5qf6sw4polanmie2","published":"2016-03-24T20:33:16+03:00","ownerId":"13298","ownerName":"LMY132306","phoneCallView":[{"source":"101","destination":"+79626898021","duration":"0","flow":4,"disposition":3}]}},"startIndex":0,"totalResults":30,"itemsPerPage":20,"filtered":true,"sorted":true,"phoneCallStat":[{"type":0,"total":3,"unanswered":0,"busy":0,"failed":0,"unknown":0,"unallowed":0,"answered":"3"},{"type":1,"total":27,"answered":"17","unanswered":"10","busy":0,"failed":0,"unknown":0,"unallowed":0}],"paging":{"next":"https:\/\/hosted.telphin.ru\/uapi\/cdr?startIndex=20&accessRequestToken=1|t~5Onv4Qkt.rBzqGzD5.jPHS94X5.OzP|13298|1458901768|j~b4t7r0dL-8KGFx2XD_OdQVYAXW_Y0q&startDate=2016-03-24T11:31:46+03:00"}}<br/>
2016_Mar_25 11:32:41: Checking for not assigned telfin calls <br/>
<br/>
